lfdn;2 Gruppen;Anteil;Prae1;N1;E1;E1R;O1;O1R;V1;V1R;G1;N2;N2R;E2;E2R;O2;O2R;V2;G2;G2R;N3;E3;O3;V3;G3;G3R;N4;N4R;E4;E4R;O4;O4R;V4;G4;GesamtN;MeanN;GesamtE;GesamtO;GesamtV;GesamtG;Taetigkeit1;Taetigkeit2;Taetigkeit2R;Taetigkeit3;GesamtTat;Kollegen1;Kollegen2;Kollegen3;Kollegen3R;GesamtKolleg;Entwick1;Entwick2;Entwick2R;Entwick3;GesamtEntw;Vorg1;Vorg2;Vorg3;Vorg3R;GesamtVorg;Gesamt1;GesamtAZ;MeanAZ;Veraend;Alter;Geschlecht;Branche;Abteilung
3;5;4;5;4;5;1;2;4;2;4;2;2;4;4;2;3;3;4;2;4;2;1;1;5;3;3;2;4;5;1;4;2;5;4;14;45049;5;10;18;13;5;1;5;5;15;5;5;1;5;15;5;1;5;5;15;5;5;1;5;15;5;65;;5;23;2;3 IT;2 Forschung & Entwicklung
4;5;4;5;4;2;4;4;2;1;5;2;5;1;1;5;4;2;4;4;2;4;3;2;4;4;2;4;2;4;2;4;2;4;3;11;27426;14;8;17;9;5;1;5;4;14;5;5;1;5;15;4;4;2;4;10;4;5;2;4;13;4;56;;5;57;2;1 (Automobil-)Industrie;2 Forschung & Entwicklung
5;1;1;1;4;1;5;2;4;2;4;4;5;1;2;4;4;2;4;1;5;3;5;2;4;2;4;2;4;2;4;4;2;5;3;12;3;18;10;17;16;4;1;5;5;14;1;3;2;4;8;3;2;4;2;9;2;3;2;4;9;4;44;;2;53;1;2 Gesundheit/Soziales;10 Sonstiges
6;1;1;1;5;2;4;4;2;2;4;3;5;1;2;4;4;2;4;4;2;4;4;2;4;4;2;2;4;4;2;5;1;4;4;14;45049;14;7;16;11;3;3;3;3;9;4;4;1;5;13;4;4;2;2;8;5;5;1;5;15;4;49;;3;22;1;2 Gesundheit/Soziales;1 Personalwesen
8;5;4;5;2;4;2;4;2;2;4;4;4;2;4;2;4;2;2;2;4;2;3;4;2;3;3;3;3;4;2;3;3;2;4;9;45689;9;11;10;15;2;4;2;3;7;3;2;3;3;8;2;4;2;2;6;3;2;3;3;8;2;31;;3;23;1;1 (Automobil-)Industrie;8 Kundendienst
9;1;1;1;4;2;4;4;2;2;4;4;2;4;1;5;4;2;4;1;5;4;5;2;4;2;4;1;5;2;4;4;2;4;5;17;45748;18;8;16;18;2;4;2;3;7;4;4;1;5;13;4;1;5;4;13;4;4;1;5;13;4;50;;3;22;1;2 Gesundheit/Soziales;1 Personalwesen
12;5;4;5;4;5;1;2;4;1;5;3;2;4;5;1;2;4;5;2;4;4;1;1;5;2;4;2;4;5;1;4;2;5;4;16;4;4;11;20;15;5;1;5;5;15;5;5;1;5;15;5;1;5;5;15;5;5;1;5;15;5;65;;5;23;2;3 IT;2 Forschung & Entwicklung
15;5;3;3;2;1;5;4;2;2;4;2;4;2;2;4;4;2;2;4;2;4;3;2;4;4;2;4;2;4;2;5;1;4;4;10;45048;14;7;14;10;3;1;5;4;12;4;4;3;3;11;4;1;5;4;13;4;4;2;4;12;4;52;;4;56;2;1 (Automobil-)Industrie;2 Forschung & Entwicklung
20;5;3;5;2;2;4;1;5;3;3;3;4;2;2;4;1;5;3;3;3;2;3;4;3;3;3;4;2;3;3;3;3;3;3;8;2;14;17;12;12;4;2;4;3;11;4;4;2;4;12;4;2;4;4;12;4;4;2;4;12;3;50;;5;45;2;3 IT;2 Forschung & Entwicklung
22;1;2;3;4;4;2;2;4;1;5;2;2;4;4;2;3;3;5;1;5;4;1;1;3;3;3;5;1;4;2;4;2;4;4;13;45717;7;10;17;14;4;2;4;4;12;5;5;1;5;15;3;3;3;3;9;5;4;1;5;14;4;54;;5;29;2;1 (Automobil-)Industrie;2 Forschung & Entwicklung
23;1;2;3;2;3;3;3;3;3;3;2;3;3;4;2;4;2;4;4;2;4;5;3;2;4;2;5;1;4;2;4;2;4;4;10;45048;12;10;13;10;2;4;2;3;7;4;4;3;3;11;4;2;4;3;11;4;4;1;5;13;4;46;;3;36;2;1 (Automobil-)Industrie;2 Forschung & Entwicklung
26;5;3;4;2;4;2;1;5;4;2;5;5;1;3;3;4;2;3;2;4;1;3;4;2;2;4;4;2;3;3;3;3;2;4;6;45047;11;14;9;17;4;3;3;4;11;4;4;2;4;12;3;3;3;3;9;5;5;2;4;14;3;49;;5;32;2;1 (Automobil-)Industrie;2 Forschung & Entwicklung
29;1;1;2;4;1;5;4;2;2;4;2;2;4;3;3;4;2;4;4;2;5;4;4;5;4;2;3;3;4;2;3;3;5;4;16;4;14;11;18;10;3;4;2;2;7;4;4;2;4;12;4;2;4;3;11;5;5;1;5;15;3;48;;4;23;1;4 Medien/Marketing;9 Fertigung & Produktion
33;5;3;3;2;3;3;3;3;4;2;2;2;4;3;3;4;2;3;1;5;2;4;1;3;4;2;3;3;3;3;4;2;4;4;11;27426;13;8;12;13;4;3;3;4;11;4;4;2;4;12;2;4;2;3;7;4;4;2;4;12;4;46;;3;58;2;1 (Automobil-)Industrie;2 Forschung & Entwicklung
35;5;3;4;2;3;3;2;4;2;4;4;4;2;3;3;2;4;3;2;4;2;4;4;2;2;4;1;5;4;2;2;4;4;5;11;27426;12;16;13;17;3;2;4;4;11;4;4;2;4;12;3;2;4;3;10;4;4;1;5;13;4;50;;5;25;1;5 Dienstleistungen;5 Buchhaltung, Finanzen
36;1;1;2;2;3;3;2;4;3;3;2;2;4;3;3;3;3;3;4;2;2;2;2;4;4;2;4;2;3;3;2;4;2;4;10;45048;11;13;12;10;2;4;2;2;6;3;3;3;3;9;2;5;1;2;5;4;4;3;3;11;2;33;;4;42;2;10 Sonstiges;10 Sonstiges
37;1;1;4;2;4;2;4;2;5;1;4;4;2;5;1;2;4;2;4;2;3;4;1;4;3;3;3;3;5;1;1;5;3;4;10;45048;8;12;10;13;4;2;4;4;12;4;4;4;2;10;2;4;2;2;6;4;4;4;2;10;3;41;;4;32;2;1 (Automobil-)Industrie;2 Forschung & Entwicklung
41;5;3;4;2;3;3;1;5;1;5;4;3;3;4;2;4;2;4;2;4;2;4;1;4;2;4;3;3;4;2;3;3;4;4;10;45048;11;11;17;16;2;4;2;2;6;4;4;3;3;11;3;3;3;3;9;4;3;4;2;9;4;39;;5;30;2;1 (Automobil-)Industrie;2 Forschung & Entwicklung
42;5;4;5;1;2;4;3;3;2;4;4;4;2;3;3;4;2;4;2;4;2;2;2;4;2;4;3;3;3;3;4;2;4;4;8;2;12;9;16;16;4;1;5;4;13;4;4;1;5;13;4;2;4;4;12;4;4;2;4;12;4;54;;5;50;2;1 (Automobil-)Industrie;2 Forschung & Entwicklung
43;5;4;4;1;1;5;1;5;1;5;3;3;3;3;3;4;2;3;4;2;3;2;2;3;2;4;4;2;4;2;3;3;4;5;9;45689;12;12;15;14;5;1;5;5;15;4;4;2;4;12;4;1;5;3;12;4;5;1;5;14;4;57;;5;49;2;10 Sonstiges;2 Forschung & Entwicklung
47;1;1;2;2;1;5;2;4;2;4;5;4;2;3;3;4;2;4;1;5;2;4;2;4;1;5;4;2;3;3;3;3;4;5;8;2;15;11;16;20;4;2;4;4;12;4;5;2;4;13;4;3;3;3;10;3;4;2;4;11;4;50;;3;27;1;10 Sonstiges;1 Personalwesen
48;1;2;2;1;2;4;2;4;2;4;4;4;2;3;3;3;3;4;2;4;2;4;2;4;2;4;2;4;2;4;4;2;4;4;9;45689;15;11;16;16;3;2;4;4;11;4;5;2;4;13;4;2;4;4;12;4;4;1;5;13;4;53;;4;30;1;6 Baugewerbe;1 Personalwesen
49;5;4;5;1;3;3;3;3;2;4;5;5;1;3;3;3;3;3;1;5;1;1;1;3;1;5;4;2;3;3;3;3;3;5;5;45658;10;10;13;20;4;3;3;3;10;3;3;4;2;8;3;3;3;3;9;3;3;3;3;9;3;39;;5;23;1;10 Sonstiges;4 Marketing
50;5;4;4;2;1;5;2;4;2;4;4;4;2;4;2;2;4;4;1;5;2;4;4;4;2;4;1;5;4;2;2;4;4;4;11;27426;13;16;16;17;4;2;4;4;12;4;5;2;4;13;4;1;5;4;13;4;5;1;5;14;4;56;;4;27;1;3 IT;3 IT
51;1;1;2;3;4;2;2;4;2;4;4;3;3;4;2;4;2;3;2;4;2;4;4;4;3;3;2;4;5;1;4;2;4;4;12;3;9;12;15;15;3;4;2;2;7;4;4;2;4;12;3;3;3;3;9;4;3;1;5;12;3;43;;5;22;1;6 Baugewerbe;4 Marketing
52;1;1;2;2;3;3;3;3;2;4;4;4;2;2;4;3;3;4;2;4;2;4;4;4;2;4;4;2;2;4;3;3;4;4;8;2;15;13;16;16;3;3;3;3;9;5;4;2;4;13;4;2;4;4;12;5;5;2;4;14;4;52;;3;32;1;1 (Automobil-)Industrie;1 Personalwesen
53;5;3;4;2;3;3;3;3;4;2;4;3;3;5;1;3;3;3;2;4;1;2;2;3;4;2;2;4;5;1;3;3;4;4;10;45048;7;11;12;14;4;2;4;4;12;4;4;3;3;11;3;3;3;3;9;4;5;2;4;13;4;49;;4;26;1;10 Sonstiges;10 Sonstiges
54;5;4;3;2;2;4;1;5;1;5;3;4;2;3;3;2;4;3;4;2;4;2;2;3;4;2;2;4;2;4;3;3;3;3;12;3;13;14;14;10;3;3;3;2;8;4;4;2;4;12;2;3;3;3;8;4;5;1;5;14;3;45;;4;25;1;1 (Automobil-)Industrie;7 Vertrieb
56;1;2;2;4;4;2;2;4;3;3;4;3;3;3;3;2;4;3;5;1;5;2;2;4;5;1;4;2;3;3;4;2;3;4;14;45049;10;12;13;10;4;3;3;4;11;5;4;2;4;13;3;4;2;1;6;4;4;1;5;13;4;47;;5;25;1;10 Sonstiges;10 Sonstiges
57;5;4;4;4;2;4;2;4;3;3;2;5;1;2;4;4;2;3;5;1;4;1;1;4;4;2;4;2;2;4;2;4;3;2;11;27426;13;11;13;7;4;3;3;4;11;5;5;2;4;14;5;1;5;5;15;5;5;1;5;15;4;59;;5;35;2;3 IT;10 Sonstiges
58;5;4;4;2;4;2;4;2;5;1;5;2;4;2;4;2;4;4;4;2;2;5;1;4;4;2;4;2;4;2;5;1;4;4;10;45048;13;8;13;13;3;3;3;3;9;4;4;2;4;12;2;5;1;3;6;5;3;2;4;12;3;42;;3;28;2;3 IT;2 Forschung & Entwicklung
59;1;2;3;1;4;2;2;4;1;5;4;2;4;4;2;4;2;4;2;4;4;4;3;3;4;2;5;1;4;2;5;1;3;4;10;45048;10;10;15;14;4;2;4;5;13;5;5;1;5;15;4;1;5;4;13;5;5;1;5;15;5;61;;5;29;2;3 IT;3 IT
60;1;1;2;2;4;2;3;3;2;4;4;3;3;4;2;4;2;4;3;3;2;2;1;4;3;3;4;2;2;4;4;2;4;4;9;45689;10;8;16;14;3;3;3;4;10;4;4;2;4;12;3;4;2;3;8;4;4;1;5;13;4;47;;4;30;2;3 IT;3 IT
61;5;4;2;1;5;1;1;5;2;4;4;5;1;3;3;2;4;4;2;4;4;2;5;4;2;4;1;5;4;2;3;3;4;4;11;27426;8;17;16;16;4;2;4;4;12;5;5;1;5;15;5;1;5;5;15;5;5;1;5;15;5;62;;5;27;2;3 IT;3 IT
62;1;2;3;4;4;2;4;2;4;2;3;2;4;4;2;4;2;2;4;2;4;2;3;2;4;2;2;4;5;1;4;2;2;3;16;4;7;9;8;10;4;3;3;4;11;4;4;2;4;12;4;2;4;3;11;4;4;1;5;13;5;52;;4;25;2;3 IT;4 Marketing
63;1;1;2;1;3;3;2;4;4;2;5;5;1;2;4;2;4;5;3;3;2;5;2;2;2;4;5;1;4;2;3;3;2;5;5;45658;14;13;11;17;5;1;5;5;15;4;5;2;4;13;5;1;5;5;15;3;4;1;5;12;5;60;;5;28;2;3 IT;3 IT
65;5;4;4;4;4;2;2;4;2;4;2;3;3;2;4;2;4;2;4;2;4;2;2;2;5;1;3;3;4;2;4;2;2;4;14;45049;10;12;10;9;3;3;3;2;8;5;5;1;5;15;4;3;3;4;11;5;5;1;5;15;3;52;;4;27;2;3 IT;3 IT
66;1;1;2;1;1;5;2;4;3;3;5;5;1;3;3;3;3;5;4;2;1;5;3;5;2;4;5;1;2;4;3;3;5;4;4;1;17;13;18;15;5;1;5;4;14;5;5;1;5;15;5;1;5;5;15;5;5;1;5;15;5;64;;4;30;2;3 IT;3 IT
73;5;3;4;1;1;5;4;2;3;3;4;4;2;3;3;3;3;3;2;4;1;3;1;4;1;5;4;2;3;3;3;3;3;4;6;45047;14;9;13;17;2;2;4;4;10;4;4;1;5;13;2;3;3;2;7;4;4;1;5;13;4;47;;5;45;2;1 (Automobil-)Industrie;2 Forschung & Entwicklung
76;5;4;5;2;4;2;2;4;2;4;5;3;3;2;4;3;3;2;1;5;2;2;2;2;2;4;2;4;2;4;3;3;2;3;11;27426;12;12;10;17;4;1;5;5;14;4;3;2;4;11;4;2;4;4;12;4;4;1;5;13;4;54;;5;63;2;3 IT;3 IT
85;5;4;4;2;4;2;2;4;2;4;2;2;4;4;2;4;2;4;4;2;4;3;2;2;4;2;3;3;4;2;4;2;3;4;13;45717;9;10;13;10;3;3;3;3;9;4;4;1;5;13;3;2;4;4;11;3;3;2;4;10;3;46;;3;30;1;3 IT;10 Sonstiges
86;1;2;4;2;2;4;1;5;1;5;5;4;2;3;3;4;2;4;1;5;2;1;1;5;2;4;4;2;3;3;5;1;5;5;8;2;11;9;19;19;4;3;3;4;11;4;4;3;3;11;4;1;5;3;12;3;4;1;5;12;3;49;;5;23;1;10 Sonstiges;1 Personalwesen
90;1;2;5;2;3;3;1;5;1;5;5;4;2;3;3;4;2;1;1;5;1;1;4;4;1;5;3;3;3;3;3;3;4;5;8;2;10;14;14;20;3;3;3;3;9;4;3;3;3;10;4;1;5;3;12;5;5;1;5;15;4;50;;5;25;1;7 Finanzen, Immobilien, Versicherungen;1 Personalwesen
107;1;2;4;1;1;5;1;5;1;5;4;4;2;2;4;2;4;4;2;4;1;4;1;5;2;4;4;2;5;1;2;4;4;4;6;45047;14;14;18;16;4;1;5;4;13;4;4;2;4;12;5;1;5;4;14;5;5;1;5;15;5;59;;4;51;1;2 Gesundheit/Soziales;5 Buchhaltung, Finanzen
108;1;1;2;2;4;2;2;4;2;4;5;4;2;3;3;2;4;4;2;4;2;4;2;3;4;2;4;2;3;3;4;2;4;4;8;2;12;12;15;15;4;2;4;4;12;3;3;3;3;9;2;4;2;2;6;2;2;3;3;7;4;38;;3;49;1;2 Gesundheit/Soziales;10 Sonstiges
111;1;1;3;2;2;4;3;3;2;4;4;4;2;2;4;2;4;3;2;4;2;4;3;4;2;4;4;2;4;2;3;3;4;4;8;2;14;13;15;16;3;1;5;4;12;4;5;1;5;14;2;4;2;3;7;5;4;1;5;14;5;52;;5;51;1;10 Sonstiges;7 Vertrieb
112;5;3;4;1;2;4;2;4;2;4;4;3;3;2;4;4;2;4;2;4;2;5;4;5;2;4;4;2;4;2;4;2;5;4;8;2;15;12;18;16;4;1;5;4;13;5;5;1;5;15;4;1;5;4;13;5;5;1;5;15;4;60;;5;27;1;5 Dienstleistungen;10 Sonstiges
115;5;4;5;1;1;5;1;5;2;4;5;5;1;3;3;4;2;4;2;4;1;3;1;3;3;3;4;2;5;1;3;3;3;4;5;45658;12;11;14;16;5;3;3;4;12;4;4;3;3;11;4;1;5;5;14;3;4;2;4;11;5;53;;5;35;2;7 Finanzen, Immobilien, Versicherungen;7 Vertrieb
122;5;3;3;2;4;2;1;5;3;3;4;2;4;5;1;4;2;4;2;4;2;1;4;2;2;4;2;4;4;2;2;4;3;5;12;3;6;15;12;17;4;2;4;4;12;4;4;3;3;11;2;4;2;1;5;5;4;1;5;14;4;46;;4;42;1;1 (Automobil-)Industrie;2 Forschung & Entwicklung
123;1;1;4;2;4;2;2;4;2;4;5;4;2;4;2;2;4;4;2;4;2;2;2;4;2;4;4;2;3;3;5;1;4;5;8;2;9;11;16;18;3;3;3;3;9;3;3;3;3;9;4;2;4;3;11;2;3;3;3;8;3;40;;5;28;1;10 Sonstiges;10 Sonstiges
124;1;2;5;1;1;5;2;4;1;5;5;5;1;5;1;5;1;3;2;4;1;3;3;2;2;4;4;2;4;2;3;3;4;5;5;45658;11;11;14;18;4;2;4;4;12;5;5;1;5;15;4;2;4;4;12;5;5;1;5;15;4;58;;5;45;1;10 Sonstiges;10 Sonstiges
131;1;1;2;2;4;2;2;4;3;3;4;5;1;4;2;3;3;3;2;4;2;3;4;4;4;2;4;2;5;1;4;2;4;5;7;27395;8;13;14;15;4;2;4;5;13;3;3;3;3;9;4;4;2;4;10;4;4;1;5;13;4;49;;3;30;1;4 Medien/Marketing;10 Sonstiges
135;1;1;2;1;1;5;1;5;1;5;2;1;5;4;2;2;4;3;4;2;1;3;2;4;2;4;4;2;3;3;2;4;3;3;9;45689;13;15;15;11;4;2;4;4;12;4;4;2;4;12;3;2;4;4;11;2;4;2;4;10;4;49;;3;27;1;10 Sonstiges;10 Sonstiges
140;5;4;4;1;1;5;1;5;3;3;5;4;2;2;4;2;4;2;1;5;3;5;1;1;2;4;3;3;3;3;3;3;4;4;9;45689;17;13;10;18;4;1;5;5;14;5;5;1;5;15;5;1;5;5;15;5;5;1;5;15;5;64;;5;28;2;7 Finanzen, Immobilien, Versicherungen;5 Buchhaltung, Finanzen
141;5;3;4;3;1;5;2;4;2;4;2;1;5;3;3;2;4;4;5;1;4;3;2;3;5;1;3;3;3;3;4;2;4;2;15;27454;14;12;15;6;3;3;3;2;8;3;3;4;2;8;1;5;1;1;3;5;4;1;5;14;1;34;;3;21;2;5 Dienstleistungen;10 Sonstiges
144;5;4;3;2;1;5;1;5;1;5;4;4;2;3;3;4;2;4;5;1;2;4;2;5;3;3;4;2;4;2;4;2;4;5;8;2;14;11;18;13;4;1;5;5;14;5;5;1;5;15;5;1;5;5;15;5;5;1;5;15;5;64;;5;29;2;7 Finanzen, Immobilien, Versicherungen;7 Vertrieb
146;5;4;5;3;4;2;2;4;3;3;5;2;4;3;3;3;3;2;2;4;2;2;2;3;2;4;4;2;4;2;4;2;2;3;11;27426;9;11;10;16;5;2;4;5;14;5;5;2;4;14;5;1;5;5;15;5;5;1;5;15;5;63;;5;27;2;3 IT;2 Forschung & Entwicklung
149;1;1;5;2;2;4;3;3;2;4;4;5;1;4;2;2;4;3;2;4;4;5;2;3;3;3;4;2;3;3;3;3;4;4;9;45689;14;12;14;15;1;4;2;2;5;4;4;3;3;11;3;3;3;2;8;5;5;1;5;15;4;43;;5;38;2;1 (Automobil-)Industrie;9 Fertigung & Produktion
151;5;3;5;5;3;3;4;2;4;2;4;2;4;4;2;4;2;4;2;4;4;2;2;4;3;3;2;4;4;2;3;3;4;4;17;45748;9;9;14;15;4;2;4;4;12;3;4;2;4;11;3;3;3;3;9;4;4;2;4;12;4;48;;5;26;1;10 Sonstiges;4 Marketing
153;5;3;5;5;4;2;5;1;3;3;5;2;4;4;2;4;2;5;1;5;2;1;5;3;3;3;1;5;4;2;5;1;2;4;16;4;7;9;13;17;3;3;3;3;9;4;4;2;4;12;3;2;4;4;11;5;5;1;5;15;3;50;;3;27;1;1 (Automobil-)Industrie;9 Fertigung & Produktion
154;1;1;3;2;3;3;2;4;1;5;2;3;3;2;4;4;2;4;2;4;2;5;3;5;4;2;4;2;2;4;3;3;4;3;9;45689;16;12;18;11;5;2;4;4;13;5;4;2;4;13;5;1;5;5;15;5;5;1;5;15;5;61;;4;28;1;4 Medien/Marketing;4 Marketing
155;1;2;3;3;4;2;2;4;2;4;4;2;4;2;4;4;2;3;1;5;2;4;2;4;1;5;4;2;3;3;4;2;5;5;11;27426;13;10;16;19;4;2;4;4;12;4;4;1;5;13;4;1;5;4;13;4;5;1;5;14;4;56;;4;55;2;10 Sonstiges;2 Forschung & Entwicklung
158;5;4;5;1;3;3;4;2;3;3;4;4;2;3;3;4;2;3;2;4;2;3;2;4;2;4;3;3;4;2;4;2;4;4;8;2;11;8;14;16;3;2;4;4;11;5;4;1;5;14;2;4;2;3;7;4;4;1;5;13;4;49;;4;28;2;1 (Automobil-)Industrie;2 Forschung & Entwicklung
159;5;3;4;3;1;5;2;4;1;5;4;5;1;2;4;3;3;4;1;5;2;5;1;2;1;5;1;5;3;3;3;3;4;5;11;27426;17;11;15;19;3;2;4;4;11;5;5;1;5;15;4;2;4;4;12;3;4;1;5;12;4;54;;4;27;1;3 IT;3 IT
162;1;1;4;2;2;4;2;4;1;5;4;4;2;2;4;2;4;5;2;4;2;4;2;4;2;4;4;2;3;3;4;2;4;3;8;2;15;12;18;15;3;1;5;4;12;5;4;2;4;13;2;3;3;3;8;4;4;2;4;12;4;49;;4;60;2;5 Dienstleistungen;10 Sonstiges
163;1;2;3;3;2;4;2;4;2;4;5;4;2;3;3;2;4;4;1;5;3;3;3;4;2;4;2;4;3;3;3;3;3;3;12;3;13;14;15;17;3;1;5;3;11;4;4;3;3;11;1;4;2;3;6;3;3;3;3;9;3;40;;5;52;1;10 Sonstiges;7 Vertrieb
167;5;3;5;3;1;5;1;5;1;5;5;1;5;2;4;4;2;4;2;4;1;4;4;4;1;5;3;3;5;1;4;2;4;5;12;3;14;13;17;19;5;1;5;5;15;4;4;2;4;12;3;2;4;3;10;3;3;2;4;10;4;51;;5;31;1;8 Wirtschaft und Politik;7 Vertrieb
169;1;2;4;1;4;2;1;5;3;3;5;3;3;2;4;2;4;3;2;4;2;2;2;2;2;4;4;2;2;4;3;3;2;4;8;2;12;14;10;17;3;4;2;3;8;5;5;2;4;14;3;4;2;1;6;2;2;1;5;9;3;40;;5;40;1;10 Sonstiges;7 Vertrieb
172;1;2;3;1;1;5;1;5;1;5;5;4;2;4;2;1;5;4;1;5;1;5;4;5;1;5;4;2;3;3;2;4;5;5;6;45047;15;18;19;20;3;2;4;4;11;5;5;1;5;15;1;5;1;1;3;4;4;1;5;13;3;45;;5;51;1;4 Medien/Marketing;5 Buchhaltung, Finanzen
173;1;1;5;2;3;3;2;4;1;5;5;2;4;4;2;2;4;3;2;4;2;4;4;4;2;4;3;3;4;2;3;3;4;4;11;27426;11;15;16;17;3;2;4;4;11;4;4;2;4;12;4;2;4;4;12;4;5;1;5;14;4;53;;5;55;1;10 Sonstiges;5 Buchhaltung, Finanzen
175;1;1;2;2;2;4;2;4;3;3;4;2;4;3;3;3;3;3;2;4;2;3;2;3;5;1;2;4;3;3;4;2;2;3;12;3;13;11;11;12;3;3;3;3;9;4;3;2;4;11;3;3;3;3;9;4;4;2;4;12;4;45;;4;27;2;10 Sonstiges;2 Forschung & Entwicklung
176;1;2;2;1;1;5;1;5;1;5;4;1;5;3;3;2;4;4;2;4;2;5;4;3;1;5;4;2;3;3;4;2;4;5;10;45048;16;15;16;18;4;1;5;5;14;4;4;2;4;12;4;1;5;3;12;4;3;2;4;11;4;53;;3;26;1;10 Sonstiges;5 Buchhaltung, Finanzen
178;1;1;3;1;1;5;1;5;1;5;4;5;1;3;3;3;3;3;1;5;1;2;4;3;2;4;3;3;2;4;4;2;4;4;6;45047;14;14;15;17;4;1;5;3;12;3;3;2;4;10;3;3;3;1;7;2;3;3;3;8;3;40;;4;33;1;10 Sonstiges;6 Einkauf
181;5;4;4;2;2;4;3;3;3;3;2;4;2;4;2;4;2;3;4;2;2;4;1;5;4;2;2;4;4;2;4;2;5;4;10;45048;12;8;16;10;4;3;3;4;11;5;5;2;4;14;2;4;2;3;7;3;2;4;2;7;3;42;;4;23;2;3 IT;3 IT
183;1;1;2;1;3;3;3;3;3;3;5;5;1;1;5;2;4;3;2;4;3;5;2;3;4;2;3;3;2;4;4;2;4;3;8;2;17;11;13;14;4;3;3;4;11;3;4;3;3;10;4;2;4;4;12;5;5;1;5;15;4;52;;4;24;1;10 Sonstiges;2 Forschung & Entwicklung
186;5;4;5;2;4;2;2;4;3;3;4;4;2;2;4;2;4;2;2;4;2;4;5;2;2;4;4;2;4;2;4;2;3;4;8;2;12;15;10;16;4;2;4;4;12;3;4;3;3;10;4;1;5;3;12;3;3;1;5;11;4;49;;5;28;2;3 IT;2 Forschung & Entwicklung
190;1;1;1;3;4;2;3;3;3;3;5;2;4;4;2;4;2;4;1;5;2;5;4;4;1;5;4;2;3;3;2;4;3;5;11;27426;12;13;14;20;5;1;5;5;15;3;3;3;3;9;3;1;5;4;12;5;5;1;5;15;4;55;;4;44;1;9 Verkehr und Logistik;10 Sonstiges
193;1;2;3;1;3;3;2;4;3;3;4;3;3;2;4;4;2;4;2;4;2;4;2;4;1;5;3;3;3;3;2;4;4;3;9;45689;14;12;15;16;4;2;4;3;11;3;4;2;4;11;4;1;5;3;12;4;3;1;5;12;4;50;;5;25;2;1 (Automobil-)Industrie;7 Vertrieb
194;5;3;4;3;4;2;1;5;1;5;4;4;2;4;2;2;4;4;1;5;2;4;2;2;2;4;5;1;4;2;4;2;3;5;8;2;10;13;14;18;4;2;4;4;12;5;5;1;5;15;4;1;5;5;14;3;4;3;3;10;3;54;;5;23;1;1 (Automobil-)Industrie;1 Personalwesen
197;5;3;5;2;2;4;2;4;3;3;4;1;5;2;4;2;4;3;2;4;2;4;1;4;4;2;2;4;4;2;4;2;4;3;13;45717;14;11;14;13;3;2;4;4;11;4;4;2;4;12;4;4;2;2;8;4;4;2;4;12;4;47;;5;37;2;1 (Automobil-)Industrie;2 Forschung & Entwicklung
199;5;3;4;2;4;2;2;4;4;2;4;3;3;2;4;4;2;3;3;3;2;3;2;2;3;3;4;2;3;3;2;4;3;4;9;45689;12;12;10;14;4;3;3;4;11;4;4;3;3;11;3;3;3;3;9;5;5;1;5;15;4;50;;5;39;2;1 (Automobil-)Industrie;2 Forschung & Entwicklung
208;1;1;2;3;2;4;3;3;3;3;4;4;2;2;4;4;2;3;3;3;2;4;3;4;4;2;3;3;2;4;3;3;4;3;10;45048;16;11;14;12;3;3;3;3;9;4;3;3;3;10;4;2;4;4;12;3;3;3;3;9;3;43;;4;32;2;5 Dienstleistungen;10 Sonstiges
212;5;4;3;4;3;3;2;4;2;4;3;4;2;1;5;3;3;4;5;1;3;3;4;4;5;1;2;4;2;4;2;4;4;4;13;45717;15;15;16;9;5;2;4;4;13;5;5;1;5;15;3;3;3;3;9;5;5;1;5;15;4;56;;3;26;1;10 Sonstiges;2 Forschung & Entwicklung
217;5;3;2;2;3;3;2;4;2;4;4;4;2;3;3;1;5;3;4;2;3;2;2;3;4;2;3;3;4;2;3;3;4;4;10;45048;10;14;14;12;3;2;4;4;11;4;4;2;4;12;3;4;2;4;9;4;4;1;5;13;4;49;;5;23;2;3 IT;3 IT
218;5;3;3;1;3;3;2;4;2;4;5;4;2;4;2;4;2;4;3;3;2;2;1;5;3;3;2;4;4;2;3;3;4;4;9;45689;9;10;17;15;4;2;4;3;11;4;5;2;4;13;4;2;4;5;13;3;5;1;5;13;4;54;;4;28;2;3 IT;9 Fertigung & Produktion
222;5;4;5;3;3;3;1;5;1;5;4;3;3;4;2;4;2;4;2;4;2;2;2;4;1;5;3;3;4;2;4;2;4;4;11;27426;9;11;17;17;5;1;5;4;14;5;5;1;5;15;4;4;2;4;10;4;5;2;4;13;4;56;;5;57;2;1 (Automobil-)Industrie;2 Forschung & Entwicklung
223;5;4;3;2;2;4;4;2;3;3;1;1;5;4;2;4;2;3;4;2;3;4;2;4;5;1;4;2;4;2;3;3;4;3;12;3;12;9;14;7;2;4;2;2;6;4;3;2;4;11;2;4;2;1;5;4;4;2;4;12;2;36;;1;43;2;3 IT;3 IT
225;1;1;3;5;2;4;2;4;2;4;1;1;5;4;2;4;2;4;5;1;4;4;1;3;4;2;3;3;5;1;4;2;2;5;17;45748;11;9;13;9;5;3;3;4;12;5;5;1;5;15;5;1;5;5;15;5;5;1;5;15;5;62;;4;25;2;2 Gesundheit/Soziales;9 Fertigung & Produktion
227;5;3;4;4;4;2;4;2;4;2;4;2;4;3;3;3;3;2;4;2;2;4;2;2;3;3;2;4;4;2;4;2;4;4;14;45049;11;9;10;13;2;4;2;2;6;3;3;4;2;8;2;4;2;2;6;4;3;3;3;10;2;32;;4;23;1;4 Medien/Marketing;4 Marketing
228;1;1;1;1;3;3;2;4;1;5;4;4;2;1;5;4;2;5;1;5;1;5;5;5;4;2;3;3;4;2;3;3;5;5;7;27395;15;14;20;16;5;1;5;5;15;5;5;1;5;15;5;1;5;5;15;4;5;1;5;14;5;64;;4;22;1;7 Finanzen, Immobilien, Versicherungen;5 Buchhaltung, Finanzen
233;1;2;2;1;1;5;2;4;2;4;5;5;1;2;4;4;2;4;2;4;2;4;4;4;4;2;2;4;4;2;2;4;4;4;8;2;15;14;16;15;4;2;4;4;12;3;4;2;4;11;3;2;4;4;11;3;2;2;4;9;3;46;;2;46;2;8 Wirtschaft und Politik;9 Fertigung & Produktion
235;5;3;4;1;1;5;2;4;2;4;3;4;2;1;5;4;2;4;4;2;1;4;1;4;3;3;4;2;4;2;3;3;5;3;6;45047;16;10;17;11;2;2;4;4;10;4;2;4;2;8;5;1;5;2;12;5;4;1;5;14;4;48;;4;28;2;1 (Automobil-)Industrie;2 Forschung & Entwicklung
237;1;2;2;4;3;3;1;5;2;4;2;3;3;3;3;4;2;4;4;2;4;4;5;4;4;2;3;3;4;2;4;2;4;4;14;45049;12;14;16;10;5;3;3;4;12;3;4;3;3;10;5;1;5;4;14;4;5;2;4;13;4;53;;4;22;1;6 Baugewerbe;2 Forschung & Entwicklung
240;5;3;5;2;3;3;3;3;3;3;4;4;2;3;3;3;3;3;2;4;2;3;3;3;2;4;3;3;3;3;3;3;3;3;9;45689;12;12;12;15;3;3;3;3;9;3;3;3;3;9;3;3;3;3;9;3;3;3;3;9;3;39;;4;41;2;1 (Automobil-)Industrie;2 Forschung & Entwicklung
243;5;3;4;2;2;4;1;5;1;5;4;4;2;4;2;4;2;4;1;5;2;3;4;4;2;4;4;2;3;3;4;2;4;4;8;2;12;13;17;17;3;2;4;3;10;5;5;1;5;15;3;2;4;3;10;5;5;1;5;15;3;53;;5;36;2;1 (Automobil-)Industrie;2 Forschung & Entwicklung
246;5;3;4;1;4;2;2;4;1;5;5;2;4;4;2;3;3;4;2;4;2;2;2;2;2;4;4;2;4;2;4;2;3;5;9;45689;8;11;14;18;4;3;3;4;11;3;4;3;3;10;4;2;4;4;12;5;4;1;5;14;4;51;;5;25;1;10 Sonstiges;3 IT
247;5;3;3;4;2;4;1;5;2;4;4;4;2;4;2;5;1;4;2;4;2;3;4;3;2;4;4;2;3;3;3;3;2;5;10;45048;12;13;13;17;5;1;5;4;14;4;4;2;4;12;3;2;4;4;11;3;3;2;4;10;4;51;;5;52;1;10 Sonstiges;10 Sonstiges
251;1;2;2;1;3;3;4;2;2;4;2;4;2;4;2;3;3;2;3;3;2;4;4;2;4;2;3;3;5;1;4;2;3;3;8;2;10;11;11;10;3;3;3;3;9;3;3;3;3;9;3;2;4;4;11;5;5;1;5;15;4;48;;5;27;2;3 IT;2 Forschung & Entwicklung
254;5;3;3;4;2;4;1;5;4;2;3;3;3;4;2;2;4;3;2;4;2;5;4;4;2;4;4;2;4;2;3;3;5;4;11;Feb 75;13;16;14;15;3;1;5;3;11;5;5;1;5;15;2;4;2;3;7;4;5;1;5;14;5;52;;5;34;2;1 (Automobil-)Industrie;2 Forschung & Entwicklung
255;1;1;2;1;1;5;1;5;1;5;4;5;1;1;5;2;4;3;1;5;1;3;1;4;1;5;3;3;2;4;2;4;3;5;6;01. Mai;17;14;15;19;4;1;5;4;13;4;4;2;4;12;3;2;4;4;11;5;5;1;5;15;4;55;;3;47;2;1 (Automobil-)Industrie;10 Sonstiges
